
New Year: 2019, Earth-female-Pig

Tibetan Lunar Month: 1 (Intercalary) - Water-male-Dragon

1: Tue. gro zhin. Fire-Earth; 5 Feb 2019
  dngos grub, mi sdug pa, Tiger, kham 7
  3;42,43 21;8,42 20;57,26 15;6,8 9;9,1
  Solar: Water-Bird. Zui 7
  From 1st to 15th, Demonstration of Miracles.
2: Wed. mon gre. Water-Water; 6 Feb 2019
  phan tshun, byis pa, Rabbit, gin 8
  4;46,59 22;3,0 21;2,0 16;5,0 9;10,0
  Solar: Wood-Dog. Can 8
3: Thu. mon gre. Wind-Water; 7 Feb 2019
  mchog can, til rdung, Dragon, zin 9
  5;51,14 22;57,18 21;6,33 17;3,52 9;10,58
  Solar: Wood-Pig. Jing 9
4: Fri. mon gru. Earth-Earth; 8 Feb 2019
  yongs 'joms, khyim skyes, Snake, zon 1
  6;55,30 23;51,37 21;11,7 18;2,44 9;11,56
  Solar: Fire-Mouse. Gui 1
5: Sat. khrums stod. Earth-Fire; 9 Feb 2019
  zhi ba, vishti, Horse, li 2
  0;58,55 24;46,45 21;15,40 19;2,26 9;12,54
  Solar: Fire-Ox. Liu 2
6: Sun. khrums smad. Fire-Water; 10 Feb 2019
  1;60,0 25;44,14 21;20,14 20;4,28 9;13,52
  Solar: Earth-Tiger. Xing 3
6: Mon. nam gru. Water-Water; 11 Feb 2019
  bsgrub bya, til rdung, Sheep, khon 3
  2;1,20 26;42,53 21;20,14 21;3,7 9;13,52
  Solar: Earth-Rabbit. Zhang 4
7: Tue. tha skar. Fire-Wind; 12 Feb 2019
  dge ba, tshong ba, Monkey, dwa 4
  3;2,46 0;40,1 21;24,47 22;4,49 9;14,51
  Solar: Iron-Dragon. Yi 5
8: Wed. bra nye. Water-Fire; 13 Feb 2019
  dkar po, gdab pa, Bird, khen 5
  4;3,11 1;38,10 21;29,21 23;7,31 9;15,49
  Solar: Iron-Snake. Zhen 6
9: Thu. smin drug. Wind-Fire; 14 Feb 2019
  tshangs pa, rigs can, Dog, kham 6
  5;1,46 2;38,8 21;33,55 24;12,3 9;16,47
  Solar: Water-Horse. Jiao 7
10. Omitted: Pig gin 7
11: Fri. snar ma. Earth-Earth; 15 Feb 2019
  dbang po, khyim skyes, Mouse, zin 8
  6;55,36 3;41,25 21;43,2 25;24,27 9;18,43
  Solar: Water-Sheep. Kang 8
12: Sat. mgo. Earth-Wind; 16 Feb 2019
  'khon 'dzin, gdab pa, Ox, zon 9
  0;51,1 4;44,34 21;47,35 26;32,10 9;19,42
  Solar: Wood-Monkey. Di 9
13: Sun. lag. Fire-Water; 17 Feb 2019
  rnam sel, rigs can, Tiger, li 1
  1;45,26 5;48,42 21;52,9 0;40,52 9;20,40
  Solar: Wood-Bird. Fang 1
14: Mon. nabs so. Water-Wind; 18 Feb 2019
  mdza' bo, khyim skyes, Rabbit, khon 2
  2;39,41 6;53,1 21;56,42 1;49,44 9;21,38
  Solar: Fire-Dog. Xin 2
15: Tue. rgyal. Fire-Fire; 19 Feb 2019
  tshe dang ldan pa, vishti, Dragon, dwa 3
  3;33,57 7;57,19 22;1,16 2;58,36 9;22,36
  Solar: Fire-Pig. Wei 3
16: Wed. mchu. Water-Fire; 20 Feb 2019
  dge byed, byis pa, Snake, khen 4
  4;28,12 9;1,37 22;5,50 4;7,27 9;23,34
  Solar: Earth-Mouse. Ji 4
17: Thu. gre. Wind-Fire; 21 Feb 2019
  shin tu 'grams, khyim skyes, Horse, kham 5
  5;22,27 10;5,56 22;10,23 5;16,19 9;24,33
  Solar: Earth-Ox. Dou 5
18: Fri. dbo. Earth-Wind; 22 Feb 2019
  las bzang, vishti, Sheep, gin 6
  6;16,42 11;10,14 22;14,57 6;25,11 9;25,31
  Solar: Iron-Tiger. Niu 6
19: Sat. me bzhi. Earth-Wind; 23 Feb 2019
  'dzin byed, byis pa, Monkey, zin 7
  0;11,48 12;13,42 22;19,30 7;33,13 9;26,29
  Solar: Iron-Rabbit. Nu 7
20: Sun. nag pa. Fire-Wind; 24 Feb 2019
  zug rngu, til rdung, Bird, zon 8
  1;7,53 13;16,10 22;24,4 8;40,15 9;27,27
  Solar: Water-Dragon. Xu 8
21: Mon. sa ri. Water-Wind; 25 Feb 2019
  'grams, tshong ba, Dog, li 9
  2;4,59 14;17,38 22;28,38 9;46,16 9;28,25
  Solar: Water-Snake. Wei 9
22: Tue. sa ga. Fire-Fire; 26 Feb 2019
  'phel, gdab pa, Pig, khon 1
  3;3,5 15;18,6 22;33,11 10;51,18 9;29,24
  Solar: Wood-Horse. Shi 1
23: Wed. lha mtshams. Water-Earth; 27 Feb 2019
  brtan pa, rigs can, Mouse, dwa 2
  4;2,59 16;16,44 22;37,43 11;54,27 10;0,22
  Solar: Wood-Sheep. Bi 2
24: Thu. snron. Wind-Earth; 28 Feb 2019
  yongs bsnun, khyim skyes, Ox, khen 3
  5;4,1 17;14,11 22;42,13 12;56,25 10;1,20
  Solar: Fire-Monkey. Kui 3
25: Fri. snrubs. Earth-Water; 1 Mar 2019
  dga' ba, vishti, Tiger, kham 4
  6;6,3 18;10,39 22;46,43 13;57,22 10;2,18
  Solar: Fire-Bird. Lou 4
26: Sat. chu stod. Earth-Water; 2 Mar 2019
  rdo rje, byis pa, Rabbit, gin 5
  0;9,5 19;6,7 22;51,12 14;57,20 10;3,17
  Solar: Earth-Dog. Wei 5
27: Sun. chu smad. Fire-Earth; 3 Mar 2019
  dngos grub, til rdung, Dragon, zin 6
  1;13,7 20;0,35 22;55,42 15;56,17 10;4,15
  Solar: Earth-Pig. Mao 6
28: Mon. chu smad. Water-Earth; 4 Mar 2019
  phan tshun, tshong ba, Snake, zon 7
  2;17,18 20;54,53 23;0,12 16;55,5 10;5,13
  Solar: Iron-Mouse. Bi 7
29: Tue. gro zhin. Fire-Earth; 5 Mar 2019
  mchog can, bkra shis, Horse, li 8
  3;21,30 21;49,11 23;4,41 17;53,53 10;6,11
  Solar: Iron-Ox. Zui 8
30: Wed. mon gre. Water-Water; 6 Mar 2019
  yongs 'joms, klu, Sheep, khon 9
  4;25,41 22;43,29 23;9,11 18;52,41 10;7,9
  Solar: Water-Tiger. Can 9

Tibetan Lunar Month: -1 (Intercalary) - Water-male-Dragon

1: Thu. mon gru. Wind-Earth; 7 Mar 2019
  zhi ba, mi sdug pa, Tiger, kham 7
  5;29,53 23;37,48 23;13,41 19;51,29 10;8,8
  Solar: Water-Rabbit. Jing 1
  From 1st to 15th, Demonstration of Miracles.
2: Fri. khrums stod. Earth-Fire; 8 Mar 2019
  grub pa, byis pa, Rabbit, gin 8
  6;34,4 24;32,6 23;18,11 20;50,17 10;9,6
  Solar: Wood-Dragon. Gui 2
3: Sat. khrums smad. Earth-Water; 9 Mar 2019
  bsgrub bya, til rdung, Dragon, zin 9
  0;37,25 25;27,15 23;22,40 21;49,55 10;10,4
  Solar: Wood-Snake. Liu 3
4: Sun. nam gru. Fire-Water; 10 Mar 2019
  dge ba, tshong ba, Snake, zon 1
  1;39,46 26;23,23 23;27,10 22;50,34 10;11,2
  Solar: Fire-Horse. Xing 4
5: Mon. tha skar. Water-Wind; 11 Mar 2019
  dkar po, gdab pa, Horse, li 2
  2;41,7 0;20,32 23;31,40 23;52,12 10;12,0
  Solar: Fire-Sheep. Zhang 5
6: Tue. bra nye. Fire-Fire; 12 Mar 2019
  tshangs pa, rigs can, Sheep, khon 3
  3;41,28 1;18,41 23;36,9 24;54,51 10;12,59
  Solar: Earth-Monkey. Yi 6
7: Wed. smin drug. Water-Fire; 13 Mar 2019
  dbang po, khyim skyes, Monkey, dwa 4
  4;39,58 2;18,40 23;40,39 25;59,20 10;13,57
  Solar: Earth-Bird. Zhen 7
8: Thu. snar ma. Wind-Earth; 14 Mar 2019
  rnam sel, vishti, Bird, khen 5
  5;37,19 3;19,49 23;45,9 0;4,58 10;14,55
  Solar: Iron-Dog. Jiao 8
9: Fri. mgo. Earth-Wind; 15 Mar 2019
  mdza' bo, byis pa, Dog, kham 6
  6;33,40 4;21,58 23;49,38 1;11,37 10;15,53
  Solar: Iron-Pig. Kang 9
10: Sat. lag. Earth-Water; 16 Mar 2019
  tshe dang ldan pa, til rdung, Pig, gin 7
  0;29,1 5;25,7 23;54,8 2;19,16 10;16,51
  Solar: Water-Mouse. Di 1
11: Sun. nabs so. Fire-Wind; 17 Mar 2019
  skal bzang, vishti, Mouse, zin 8
  1;23,21 6;29,16 23;58,38 3;27,54 10;17,50
  Solar: Water-Ox. Fang 2
12: Mon. rgyal. Water-Fire; 18 Mar 2019
  dge byed, byis pa, Ox, zon 9
  2;17,33 7;33,34 24;3,8 4;36,42 10;18,48
  Solar: Wood-Tiger. Xin 3
13: Tue. skag. Fire-Water; 19 Mar 2019
  shin tu 'grams, til rdung, Tiger, li 1
  3;11,44 8;37,53 24;7,37 5;45,31 10;19,46
  Solar: Wood-Rabbit. Wei 4
14: Wed. mchu. Water-Fire; 20 Mar 2019
  las bzang, tshong ba, Rabbit, khon 2
  4;5,55 9;42,11 24;12,7 6;54,19 10;20,44
  Solar: Fire-Dragon. Ji 5
15: Thu. gre. Wind-Fire; 21 Mar 2019
  zug rngu, gdab pa, Dragon, dwa 3
  5;0,7 10;46,29 24;16,37 8;3,7 10;21,42
  Solar: Fire-Snake. Dou 6
16. Omitted: Snake khen 4
17: Fri. dbo. Earth-Wind; 22 Mar 2019
  'grams, til rdung, Horse, kham 5
  6;49,20 11;54,15 24;25,36 9;19,52 10;23,39
  Solar: Earth-Horse. Niu 7
18: Sat. me bzhi. Earth-Wind; 23 Mar 2019
  'phel, tshong ba, Sheep, gin 6
  0;45,22 12;56,43 24;30,6 10;26,49 10;24,37
  Solar: Earth-Sheep. Nu 8
19: Sun. nag pa. Fire-Wind; 24 Mar 2019
  brtan pa, gdab pa, Monkey, zin 7
  1;42,24 13;58,11 24;34,35 11;32,46 10;25,35
  Solar: Iron-Monkey. Xu 9
20: Mon. sa ri. Water-Wind; 25 Mar 2019
  yongs bsnun, rigs can, Bird, zon 8
  2;40,27 14;58,38 24;39,5 12;37,44 10;26,34
  Solar: Iron-Bird. Wei 1
21: Tue. sa ga. Fire-Fire; 26 Mar 2019
  dga' ba, khyim skyes, Dog, li 9
  3;40,20 15;57,15 24;43,35 13;40,50 10;27,32
  Solar: Water-Dog. Shi 2
22: Wed. lha mtshams. Water-Earth; 27 Mar 2019
  rdo rje, vishti, Pig, khon 1
  4;41,22 16;54,42 24;48,5 14;42,47 10;28,30
  Solar: Water-Pig. Bi 3
23: Thu. snron. Wind-Earth; 28 Mar 2019
  dngos grub, byis pa, Mouse, dwa 2
  5;43,24 17;51,10 24;52,34 15;43,44 10;29,28
  Solar: Wood-Mouse. Kui 4
24: Fri. snrubs. Earth-Water; 29 Mar 2019
  phan tshun, til rdung, Ox, khen 3
  6;46,24 18;46,37 24;57,1 16;43,39 11;0,26
  Solar: Wood-Ox. Lou 5
25: Sat. chu stod. Earth-Water; 30 Mar 2019
  mchog can, tshong ba, Tiger, kham 4
  0;50,20 19;41,4 25;1,25 17;42,30 11;1,25
  Solar: Fire-Tiger. Wei 6
26: Sun. chu smad. Fire-Earth; 31 Mar 2019
  yongs 'joms, vishti, Rabbit, gin 5
  1;54,26 20;35,22 25;5,49 18;41,12 11;2,23
  Solar: Fire-Rabbit. Mao 7
27: Mon. gro zhin. Water-Earth; 1 Apr 2019
  zhi ba, byis pa, Dragon, zin 6
  2;58,32 21;29,41 25;10,13 19;39,54 11;3,21
  Solar: Earth-Dragon. Bi 8
28: Tue. mon gre. Fire-Water; 2 Apr 2019
  3;60,0 22;26,37 25;14,37 20;41,14 11;4,19
  Solar: Earth-Snake. Zui 9
28: Wed. mon gru. Water-Earth; 3 Apr 2019
  bsgrub bya, tshong ba, Snake, zon 7
  4;2,38 23;23,59 25;14,37 21;38,36 11;4,19
  Solar: Iron-Horse. Can 1
29: Thu. khrums stod. Wind-Fire; 4 Apr 2019
  dge ba, bkra shis, Horse, li 8
  5;6,43 24;18,17 25;19,1 22;37,18 11;5,17
  Solar: Iron-Sheep. Jing 2
30: Fri. khrums smad. Earth-Water; 5 Apr 2019
  dkar po, klu, Sheep, khon 9
  6;10,49 25;12,35 25;23,25 23;36,0 11;6,16
  Solar: Water-Monkey. Gui 3

Tibetan Lunar Month: 2 - Water-female-Snake

1: Sat. nam gru. Earth-Water; 6 Apr 2019
  tshangs pa, gdab pa, Monkey, dwa 1
  0;14,4 26;7,44 25;27,48 24;35,33 11;7,14
  Solar: Water-Bird. Liu 4
2: Sun. tha skar. Fire-Wind; 7 Apr 2019
  dbang po, rigs can, Bird, khen 2
  1;16,18 0;3,54 25;32,12 25;36,6 11;8,12
  Solar: Wood-Dog. Xing 5
3: Mon. bra nye. Water-Fire; 8 Apr 2019
  'khon 'dzin, khyim skyes, Dog, kham 3
  2;17,33 1;1,3 25;36,36 26;37,39 11;9,10
  Solar: Wood-Pig. Zhang 6
4: Tue. bra nye. Fire-Fire; 9 Apr 2019
  rnam sel, vishti, Pig, gin 4
  3;17,48 1;59,12 25;41,0 0;40,13 11;10,8
  Solar: Fire-Mouse. Yi 7
5: Wed. smin drug. Water-Fire; 10 Apr 2019
  mdza' bo, byis pa, Mouse, zin 5
  4;16,11 2;59,12 25;45,24 1;44,37 11;11,7
  Solar: Fire-Ox. Zhen 8
6: Thu. mgo. Wind-Wind; 11 Apr 2019
  tshe dang ldan pa, til rdung, Ox, zon 6
  5;13,26 4;0,22 25;49,48 2;50,10 11;12,5
  Solar: Earth-Tiger. Jiao 9
7: Fri. lag. Earth-Water; 12 Apr 2019
  skal bzang, tshong ba, Tiger, li 7
  6;9,40 5;2,31 25;54,12 3;56,43 11;13,3
  Solar: Earth-Rabbit. Kang 1
8: Sat. nabs so. Earth-Wind; 13 Apr 2019
  shin tu 'grams, gdab pa, Rabbit, khon 8
  0;4,55 6;5,40 25;58,36 5;4,17 11;14,1
  Solar: Iron-Dragon. Di 2
9. Omitted: Dragon dwa 9
10: Sun. rgyal. Fire-Fire; 14 Apr 2019
  las bzang, til rdung, Snake, khen 1
  1;53,15 7;14,8 26;7,23 6;21,32 11;15,58
  Solar: Iron-Snake. Fang 3
11: Mon. skag. Water-Water; 15 Apr 2019
  'dzin byed, tshong ba, Horse, kham 2
  2;47,20 8;18,27 26;11,47 7;30,14 11;16,56
  Solar: Water-Horse. Xin 4
12: Tue. mchu. Fire-Fire; 16 Apr 2019
  zug rngu, gdab pa, Sheep, gin 3
  3;41,26 9;22,45 26;16,11 8;38,57 11;17,54
  Solar: Water-Sheep. Wei 5
13: Wed. gre. Water-Fire; 17 Apr 2019
  'grams, rigs can, Monkey, zin 4
  4;35,31 10;27,3 26;20,35 9;47,39 11;18,52
  Solar: Wood-Monkey. Ji 6
14: Thu. dbo. Wind-Wind; 18 Apr 2019
  'phel, khyim skyes, Bird, zon 5
  5;29,37 11;31,22 26;24,59 10;56,21 11;19,51
  Solar: Wood-Bird. Dou 7
15: Fri. me bzhi. Earth-Wind; 19 Apr 2019
  yongs bsnun, gdab pa, Dog, li 6
  6;24,34 12;34,49 26;29,23 12;4,12 11;20,49
  Solar: Fire-Dog. Niu 8
16: Sat. nag pa. Earth-Wind; 20 Apr 2019
  dga' ba, rigs can, Pig, khon 7
  0;20,30 13;37,16 26;33,47 13;11,3 11;21,47
  Solar: Fire-Pig. Nu 9
17: Sun. sa ri. Fire-Wind; 21 Apr 2019
  rdo rje, khyim skyes, Mouse, dwa 8
  1;17,27 14;38,43 26;38,11 14;16,54 11;22,45
  Solar: Earth-Mouse. Xu 1
18: Mon. sa ga. Water-Fire; 22 Apr 2019
  dngos grub, vishti, Ox, khen 9
  2;15,24 15;39,10 26;42,34 15;21,45 11;23,43
  Solar: Earth-Ox. Wei 2
19: Tue. lha mtshams. Fire-Earth; 23 Apr 2019
  phan tshun, byis pa, Tiger, kham 1
  3;15,12 16;37,46 26;46,58 16;24,45 11;24,42
  Solar: Iron-Tiger. Shi 3
20: Wed. snron. Water-Earth; 24 Apr 2019
  mchog can, til rdung, Rabbit, gin 2
  4;16,9 17;35,13 26;51,22 17;26,35 11;25,40
  Solar: Iron-Rabbit. Bi 4
21: Thu. snrubs. Wind-Water; 25 Apr 2019
  yongs 'joms, tshong ba, Dragon, zin 3
  5;18,6 18;31,40 26;55,46 18;27,26 11;26,38
  Solar: Water-Dragon. Kui 5
22: Fri. chu stod. Earth-Water; 26 Apr 2019
  zhi ba, gdab pa, Snake, zon 4
  6;21,3 19;27,7 0;0,10 19;27,17 11;27,36
  Solar: Water-Snake. Lou 6
23: Sat. chu smad. Earth-Earth; 27 Apr 2019
  grub pa, rigs can, Horse, li 5
  0;25,0 20;21,34 0;4,34 20;26,8 11;28,34
  Solar: Wood-Horse. Wei 7
24: Sun. gro zhin. Fire-Earth; 28 Apr 2019
  bsgrub bya, til rdung, Sheep, khon 6
  1;29,5 21;15,52 0;8,58 21;24,50 11;29,33
  Solar: Wood-Sheep. Mao 8
25: Mon. mon gre. Water-Water; 29 Apr 2019
  dge ba, tshong ba, Monkey, dwa 7
  2;33,9 22;10,10 0;13,20 22;23,30 0;0,31
  Solar: Fire-Monkey. Bi 9
26: Tue. mon gru. Fire-Earth; 30 Apr 2019
  dkar po, gdab pa, Bird, khen 8
  3;37,11 23;4,28 0;17,40 23;22,8 0;1,29
  Solar: Fire-Bird. Zui 1
27: Wed. mon gru. Water-Earth; 1 May 2019
  tshangs pa, rigs can, Dog, kham 9
  4;41,13 23;58,46 0;22,0 24;20,46 0;2,27
  Solar: Earth-Dog. Can 2
28: Thu. khrums stod. Wind-Fire; 2 May 2019
  dbang po, khyim skyes, Pig, gin 1
  5;45,14 24;53,5 0;26,20 25;19,25 0;3,25
  Solar: Earth-Pig. Jing 3
29: Fri. khrums smad. Earth-Water; 3 May 2019
  'khon 'dzin, vishti, Mouse, zin 2
  6;48,25 25;48,14 0;30,40 26;18,54 0;4,24
  Solar: Iron-Mouse. Gui 4
30: Sat. nam gru. Earth-Water; 4 May 2019
  rnam sel, rkang bzhi, Ox, zon 3
  0;50,35 26;44,24 0;35,0 0;19,24 0;5,22
  Solar: Iron-Ox. Liu 5

Tibetan Lunar Month: 3 - Wood-male-Horse

1: Sun. tha skar. Fire-Wind; 5 May 2019
  mdza' bo, mi sdug pa, Tiger, li 4
  1;51,46 0;41,33 0;39,20 1;20,53 0;6,20
  Solar: Water-Tiger. Xing 6
2: Mon. bra nye. Water-Fire; 6 May 2019
  tshe dang ldan pa, byis pa, Rabbit, khon 5
  2;51,56 1;39,43 0;43,40 2;23,23 0;7,18
  Solar: Water-Rabbit. Zhang 7
3: Tue. smin drug. Fire-Fire; 7 May 2019
  skal bzang, til rdung, Dragon, dwa 6
  3;50,15 2;39,44 0;48,0 3;27,44 0;8,17
  Solar: Wood-Dragon. Yi 8
4: Wed. snar ma. Water-Earth; 8 May 2019
  dge byed, tshong ba, Snake, khen 7
  4;47,25 3;40,54 0;52,20 4;33,14 0;9,15
  Solar: Wood-Snake. Zhen 9
5: Thu. mgo. Wind-Wind; 9 May 2019
  shin tu 'grams, gdab pa, Horse, kham 8
  5;43,35 4;43,4 0;56,40 5;39,44 0;10,13
  Solar: Fire-Horse. Jiao 1
6: Fri. lag. Earth-Water; 10 May 2019
  las bzang, rigs can, Sheep, gin 9
  6;38,45 5;46,14 1;1,0 6;47,14 0;11,11
  Solar: Fire-Sheep. Kang 2
7: Sat. nabs so. Earth-Wind; 11 May 2019
  'dzin byed, khyim skyes, Monkey, zin 1
  0;32,55 6;50,24 1;5,20 7;55,44 0;12,9
  Solar: Earth-Monkey. Di 3
8: Sun. rgyal. Fire-Fire; 12 May 2019
  'grams, gdab pa, Bird, zon 2
  1;26,57 7;54,42 1;9,40 9;4,22 0;13,8
  Solar: Earth-Bird. Fang 4
9: Mon. skag. Water-Water; 13 May 2019
  'phel, rigs can, Dog, li 3
  2;20,59 8;59,0 1;14,0 10;13,0 0;14,6
  Solar: Iron-Dog. Xin 5
10: Tue. gre. Fire-Fire; 14 May 2019
  brtan pa, khyim skyes, Pig, khon 4
  3;15,0 10;3,19 1;18,20 11;21,39 0;15,4
  Solar: Iron-Pig. Wei 6
11: Wed. dbo. Water-Wind; 15 May 2019
  yongs bsnun, vishti, Mouse, dwa 5
  4;9,2 11;7,37 1;22,40 12;30,17 0;16,2
  Solar: Water-Mouse. Ji 7
12: Thu. me bzhi. Wind-Wind; 16 May 2019
  dga' ba, byis pa, Ox, khen 6
  5;3,4 12;11,55 1;27,0 13;38,55 0;17,0
  Solar: Water-Ox. Dou 8
13. Omitted: Tiger kham 7
14: Fri. nag pa. Earth-Wind; 17 May 2019
  rdo rje, khyim skyes, Rabbit, gin 8
  6;53,50 13;17,49 1;35,40 14;53,29 0;18,57
  Solar: Wood-Tiger. Niu 9
15: Sat. sa ri. Earth-Wind; 18 May 2019
  dngos grub, vishti, Dragon, zin 9
  0;50,44 14;19,15 1;40,0 15;59,15 0;19,55
  Solar: Wood-Rabbit. Nu 1
  Revelation of the Kalacakra Tantra.
16: Sun. sa ga. Fire-Fire; 19 May 2019
  mchog can, byis pa, Snake, zon 1
  1;48,37 15;19,42 1;44,20 17;4,2 0;20,53
  Solar: Fire-Dragon. Xu 2
17: Mon. lha mtshams. Water-Earth; 20 May 2019
  yongs 'joms, til rdung, Horse, li 2
  2;48,22 16;18,17 1;48,40 18;6,57 0;21,51
  Solar: Fire-Snake. Wei 3
18: Tue. snron. Fire-Earth; 21 May 2019
  zhi ba, tshong ba, Sheep, khon 3
  3;49,16 17;15,43 1;53,0 19;8,43 0;22,50
  Solar: Earth-Horse. Shi 4
19: Wed. snrubs. Water-Water; 22 May 2019
  grub pa, gdab pa, Monkey, dwa 4
  4;51,9 18;12,10 1;57,20 20;9,30 0;23,48
  Solar: Earth-Sheep. Bi 5
20: Thu. chu stod. Wind-Water; 23 May 2019
  bsgrub bya, byis pa, Bird, khen 5
  5;54,3 19;7,36 2;1,40 21;9,16 0;24,46
  Solar: Iron-Monkey. Kui 6
21: Fri. chu smad. Earth-Earth; 24 May 2019
  dge ba, til rdung, Dog, kham 6
  6;57,56 20;2,3 2;6,0 22;8,3 0;25,44
  Solar: Iron-Bird. Lou 7
22: Sat. chu smad. Earth-Earth; 25 May 2019
  0;60,0 20;58,20 2;10,20 23;8,40 0;26,42
  Solar: Water-Dog. Wei 8
22: Sun. gro zhin. Fire-Earth; 26 May 2019
  tshangs pa, gdab pa, Pig, gin 7
  1;1,58 21;56,21 2;10,20 24;6,41 0;26,42
  Solar: Water-Pig. Mao 9
23: Mon. mon gre. Water-Water; 27 May 2019
  dbang po, rigs can, Mouse, zin 8
  2;6,0 22;50,39 2;14,40 25;5,19 0;27,41
  Solar: Wood-Mouse. Bi 1
24: Tue. mon gru. Fire-Earth; 28 May 2019
  'khon 'dzin, khyim skyes, Ox, zon 9
  3;10,2 23;44,57 2;19,0 26;3,57 0;28,39
  Solar: Wood-Ox. Zui 2
25: Wed. khrums stod. Water-Fire; 29 May 2019
  rnam sel, vishti, Tiger, li 1
  4;14,3 24;39,16 2;23,20 0;2,36 0;29,37
  Solar: Fire-Tiger. Can 3
26: Thu. khrums smad. Wind-Water; 30 May 2019
  mdza' bo, byis pa, Rabbit, khon 2
  5;18,2 25;33,34 2;27,36 1;1,10 1;0,35
  Solar: Fire-Rabbit. Jing 4
27: Fri. nam gru. Earth-Water; 31 May 2019
  tshe dang ldan pa, til rdung, Dragon, dwa 3
  6;21,6 26;28,44 2;31,50 2;0,34 1;1,34
  Solar: Earth-Dragon. Gui 5
28: Sat. tha skar. Earth-Wind; 1 Jun 2019
  skal bzang, tshong ba, Snake, khen 4
  0;23,10 0;24,54 2;36,4 3;0,59 1;2,32
  Solar: Earth-Snake. Liu 6
29: Sun. bra nye. Fire-Fire; 2 Jun 2019
  dge byed, bkra shis, Horse, kham 5
  1;24,14 1;22,4 2;40,18 4;2,23 1;3,30
  Solar: Iron-Horse. Xing 7
30: Mon. smin drug. Water-Fire; 3 Jun 2019
  shin tu 'grams, klu, Sheep, gin 6
  2;24,18 2;20,14 2;44,33 5;4,47 1;4,28
  Solar: Iron-Sheep. Zhang 8

Tibetan Lunar Month: 4 - Wood-female-Sheep

1: Tue. snar ma. Fire-Earth; 4 Jun 2019
  las bzang, gdab pa, Monkey, zin 7
  3;22,30 3;20,16 2;48,47 6;9,4 1;5,26
  Solar: Water-Monkey. Yi 9
2: Wed. mgo. Water-Wind; 5 Jun 2019
  'dzin byed, rigs can, Bird, zon 8
  4;19,34 4;21,27 2;53,1 7;14,28 1;6,25
  Solar: Water-Bird. Zhen 1
3: Thu. lag. Wind-Water; 6 Jun 2019
  zug rngu, khyim skyes, Dog, li 9
  5;15,38 5;23,37 2;57,15 8;20,52 1;7,23
  Solar: Wood-Dog. Jiao 2
4: Fri. nabs so. Earth-Wind; 7 Jun 2019
  'grams, vishti, Pig, khon 1
  6;10,42 6;26,47 3;1,29 9;28,17 1;8,21
  Solar: Wood-Pig. Kang 3
5: Sat. rgyal. Earth-Fire; 8 Jun 2019
  'phel, byis pa, Mouse, dwa 2
  0;4,46 7;30,57 3;5,44 10;36,41 1;9,19
  Solar: Fire-Mouse. Di 4
6. Omitted: Ox khen 3
7: Sun. skag. Fire-Water; 9 Jun 2019
  brtan pa, khyim skyes, Tiger, kham 4
  1;52,37 8;39,34 3;14,12 11;53,46 1;11,16
  Solar: Fire-Ox. Fang 5
  Birth of the Buddha.
8: Mon. mchu. Water-Fire; 10 Jun 2019
  dga' ba, vishti, Rabbit, gin 5
  2;46,33 9;43,52 3;18,26 13;2,19 1;12,14
  Solar: Earth-Tiger. Xin 6
9: Tue. gre. Fire-Fire; 11 Jun 2019
  rdo rje, byis pa, Dragon, zin 6
  3;40,29 10;48,11 3;22,40 14;10,52 1;13,12
  Solar: Earth-Rabbit. Wei 7
10: Wed. dbo. Water-Wind; 12 Jun 2019
  dngos grub, til rdung, Snake, zon 7
  4;34,25 11;52,29 3;26,54 15;19,24 1;14,10
  Solar: Iron-Dragon. Ji 8
11: Thu. me bzhi. Wind-Wind; 13 Jun 2019
  phan tshun, tshong ba, Horse, li 8
  5;29,13 12;55,55 3;31,9 16;27,5 1;15,8
  Solar: Iron-Snake. Dou 9
12: Fri. nag pa. Earth-Wind; 14 Jun 2019
  mchog can, byis pa, Sheep, khon 9
  6;25,1 13;58,22 3;35,23 17;33,45 1;16,7
  Solar: Water-Horse. Niu 1
13: Sat. sa ri. Earth-Wind; 15 Jun 2019
  yongs 'joms, til rdung, Monkey, dwa 1
  0;21,49 14;59,48 3;39,37 18;39,25 1;17,5
  Solar: Water-Sheep. Nu 2
14: Sun. lha mtshams. Fire-Earth; 16 Jun 2019
  zhi ba, tshong ba, Bird, khen 2
  1;19,37 16;0,14 3;43,51 19;44,6 1;18,3
  Solar: Wood-Monkey. Xu 3
15: Mon. lha mtshams. Water-Earth; 17 Jun 2019
  grub pa, gdab pa, Dog, kham 3
  2;19,17 16;58,48 3;48,5 20;46,54 1;19,1
  Solar: Wood-Bird. Wei 4
  Enlightenment and Parinirvana of the Buddha.
16: Tue. snron. Fire-Earth; 18 Jun 2019
  bsgrub bya, rigs can, Pig, gin 4
  3;20,5 17;56,14 3;52,20 21;48,34 1;20,0
  Solar: Fire-Dog. Shi 5
17: Wed. snrubs. Water-Water; 19 Jun 2019
  dge ba, khyim skyes, Mouse, zin 5
  4;21,53 18;52,40 3;56,34 22;49,14 1;20,58
  Solar: Fire-Pig. Bi 6
18: Thu. chu stod. Wind-Water; 20 Jun 2019
  dkar po, vishti, Ox, zon 6
  5;24,41 19;48,6 4;0,48 23;48,55 1;21,56
  Solar: Earth-Mouse. Kui 7
19: Fri. chu smad. Earth-Earth; 21 Jun 2019
  tshangs pa, gdab pa, Tiger, li 7
  6;28,29 20;42,32 4;5,2 24;47,35 1;22,54
  Solar: Earth-Ox. Lou 8
20: Sat. gro zhin. Earth-Earth; 22 Jun 2019
  dbang po, rigs can, Rabbit, khon 8
  0;32,25 21;36,50 4;9,16 25;46,7 1;23,52
  Solar: Iron-Tiger. Wei 9
21: Sun. mon gre. Fire-Water; 23 Jun 2019
  'khon 'dzin, khyim skyes, Dragon, dwa 9
  1;36,21 22;31,9 4;13,30 26;44,39 1;24,51
  Solar: Iron-Rabbit. Mao 1
22: Mon. mon gru. Water-Earth; 24 Jun 2019
  rnam sel, vishti, Snake, khen 1
  2;40,17 23;25,27 4;17,45 0;43,12 1;25,49
  Solar: Water-Dragon. Bi 2
23: Tue. khrums stod. Fire-Fire; 25 Jun 2019
  mdza' bo, byis pa, Horse, kham 2
  3;44,13 24;19,45 4;21,59 1;41,44 1;26,47
  Solar: Water-Snake. Zui 3
24: Wed. khrums smad. Water-Water; 26 Jun 2019
  tshe dang ldan pa, til rdung, Sheep, gin 3
  4;48,9 25;14,3 4;26,13 2;40,17 1;27,45
  Solar: Wood-Horse. Can 4
25: Thu. nam gru. Wind-Water; 27 Jun 2019
  skal bzang, tshong ba, Monkey, zin 4
  5;51,13 26;9,14 4;30,27 3;39,41 1;28,43
  Solar: Wood-Sheep. Jing 5
26: Fri. tha skar. Earth-Wind; 28 Jun 2019
  dge byed, gdab pa, Bird, zon 5
  6;53,17 0;5,24 4;34,41 4;40,6 1;29,42
  Solar: Fire-Monkey. Gui 6
27: Sat. bra nye. Earth-Fire; 29 Jun 2019
  shin tu 'grams, byis pa, Dog, li 6
  0;54,18 1;2,35 4;38,53 5;41,28 2;0,40
  Solar: Fire-Bird. Liu 7
28: Sun. smin drug. Fire-Fire; 30 Jun 2019
  las bzang, til rdung, Pig, khon 7
  1;54,17 2;0,45 4;43,3 6;43,49 2;1,38
  Solar: Earth-Dog. Xing 8
29: Mon. snar ma. Water-Earth; 1 Jul 2019
  'dzin byed, vishti, Mouse, dwa 8
  2;52,25 3;0,48 4;47,13 7;48,2 2;2,36
  Solar: Earth-Pig. Zhang 9
30: Tue. mgo. Fire-Wind; 2 Jul 2019
  zug rngu, rkang bzhi, Ox, khen 9
  3;49,24 4;1,59 4;51,24 8;53,23 2;3,34
  Solar: Iron-Mouse. Yi 1

Tibetan Lunar Month: 5 - Fire-male-Monkey

1: Wed. lag. Water-Water; 3 Jul 2019
  'grams, mi sdug pa, Tiger, kham 1
  4;45,24 5;4,10 4;55,34 9;59,44 2;4,33
  Solar: Iron-Ox. Zhen 2
2: Thu. nabs so. Wind-Wind; 4 Jul 2019
  brtan pa, byis pa, Rabbit, gin 2
  5;40,23 6;7,20 4;59,44 11;7,5 2;5,31
  Solar: Water-Tiger. Jiao 3
3: Fri. rgyal. Earth-Fire; 5 Jul 2019
  yongs bsnun, til rdung, Dragon, zin 3
  6;34,23 7;11,31 5;3,55 12;15,26 2;6,29
  Solar: Water-Rabbit. Kang 4
4: Sat. skag. Earth-Water; 6 Jul 2019
  dga' ba, tshong ba, Snake, zon 4
  0;28,15 8;15,50 5;8,5 13;23,55 2;7,27
  Solar: Wood-Dragon. Di 5
5: Sun. mchu. Fire-Fire; 7 Jul 2019
  rdo rje, byis pa, Horse, li 5
  1;22,7 9;20,8 5;12,15 14;32,24 2;8,25
  Solar: Wood-Snake. Fang 6
6: Mon. gre. Water-Fire; 8 Jul 2019
  dngos grub, til rdung, Sheep, khon 6
  2;15,59 10;24,26 5;16,25 15;40,52 2;9,24
  Solar: Fire-Horse. Xin 7
7: Tue. dbo. Fire-Wind; 9 Jul 2019
  phan tshun, tshong ba, Monkey, dwa 7
  3;9,51 11;28,45 5;20,36 16;49,21 2;10,22
  Solar: Fire-Sheep. Wei 8
8: Wed. me bzhi. Water-Wind; 10 Jul 2019
  mchog can, gdab pa, Bird, khen 8
  4;3,43 12;33,3 5;24,46 17;57,49 2;11,20
  Solar: Earth-Monkey. Ji 9
9. Omitted: Dog kham 9
10: Thu. nag pa. Wind-Wind; 11 Jul 2019
  zhi ba, rigs can, Pig, gin 1
  5;54,12 13;38,55 5;33,7 19;12,2 2;13,17
  Solar: Earth-Bird. Dou 1
11: Fri. sa ri. Earth-Wind; 12 Jul 2019
  grub pa, tshong ba, Mouse, zin 2
  6;50,56 14;40,20 5;37,17 20;17,38 2;14,15
  Solar: Iron-Dog. Niu 2
12: Sat. sa ga. Earth-Fire; 13 Jul 2019
  bsgrub bya, gdab pa, Ox, zon 3
  0;48,41 15;40,46 5;41,27 21;22,14 2;15,13
  Solar: Iron-Pig. Nu 3
13: Sun. lha mtshams. Fire-Earth; 14 Jul 2019
  dge ba, rigs can, Tiger, li 4
  1;48,18 16;39,19 5;45,38 22;24,57 2;16,11
  Solar: Water-Mouse. Xu 4
14: Mon. snron. Water-Earth; 15 Jul 2019
  dkar po, khyim skyes, Rabbit, khon 5
  2;49,3 17;36,45 5;49,48 23;26,33 2;17,9
  Solar: Water-Ox. Wei 5
15: Tue. snrubs. Fire-Water; 16 Jul 2019
  tshangs pa, vishti, Dragon, dwa 6
  3;50,47 18;33,10 5;53,58 24;27,9 2;18,8
  Solar: Wood-Tiger. Shi 6
16: Wed. chu stod. Water-Water; 17 Jul 2019
  dbang po, byis pa, Snake, khen 7
  4;53,32 19;28,36 5;58,8 25;26,45 2;19,6
  Solar: Wood-Rabbit. Bi 7
17: Thu. chu smad. Wind-Earth; 18 Jul 2019
  'khon 'dzin, rigs can, Horse, kham 8
  5;57,17 20;23,2 6;2,19 26;25,21 2;20,4
  Solar: Fire-Dragon. Kui 8
18: Fri. gro zhin. Earth-Earth; 19 Jul 2019
  6;60,0 21;18,29 6;6,29 0;24,59 2;21,2
  Solar: Fire-Snake. Lou 9
18: Sat. mon gre. Earth-Water; 20 Jul 2019
  mdza' bo, vishti, Sheep, gin 9
  0;1,9 22;17,20 6;6,29 1;23,49 2;21,2
  Solar: Earth-Horse. Wei 1
19: Sun. mon gru. Fire-Earth; 21 Jul 2019
  tshe dang ldan pa, byis pa, Monkey, zin 1
  1;5,1 23;11,38 6;10,39 2;22,18 2;22,0
  Solar: Earth-Sheep. Mao 2
20: Mon. khrums stod. Water-Fire; 22 Jul 2019
  skal bzang, til rdung, Bird, zon 2
  2;8,53 24;5,56 6;14,50 3;20,46 2;22,59
  Solar: Iron-Monkey. Bi 3
21: Tue. khrums smad. Fire-Water; 23 Jul 2019
  dge byed, tshong ba, Dog, li 3
  3;12,45 25;0,14 6;19,0 4;19,15 2;23,57
  Solar: Iron-Bird. Zui 4
22: Wed. khrums smad. Water-Water; 24 Jul 2019
  shin tu 'grams, gdab pa, Pig, khon 4
  4;16,37 25;54,33 6;23,10 5;17,43 2;24,55
  Solar: Water-Dog. Can 5
23: Thu. nam gru. Wind-Water; 25 Jul 2019
  las bzang, rigs can, Mouse, dwa 5
  5;19,37 26;49,43 6;27,21 6;17,4 2;25,53
  Solar: Water-Pig. Jing 6
24: Fri. tha skar. Earth-Wind; 26 Jul 2019
  'dzin byed, khyim skyes, Ox, khen 6
  6;21,36 0;45,54 6;31,31 7;17,26 2;26,51
  Solar: Wood-Mouse. Gui 7
25: Sat. bra nye. Earth-Fire; 27 Jul 2019
  zug rngu, vishti, Tiger, kham 7
  0;22,35 1;43,5 6;35,41 8;18,47 2;27,50
  Solar: Wood-Ox. Liu 8
26: Sun. smin drug. Fire-Fire; 28 Jul 2019
  'grams, byis pa, Rabbit, gin 8
  1;22,35 2;41,16 6;39,51 9;21,8 2;28,48
  Solar: Fire-Tiger. Xing 9
27: Mon. snar ma. Water-Earth; 29 Jul 2019
  'phel, til rdung, Dragon, zin 9
  2;20,41 3;41,20 6;44,2 10;25,23 2;29,46
  Solar: Fire-Rabbit. Zhang 1
28: Tue. mgo. Fire-Wind; 30 Jul 2019
  brtan pa, tshong ba, Snake, zon 1
  3;17,40 4;42,31 6;48,12 11;30,44 3;0,44
  Solar: Earth-Dragon. Yi 2
29: Wed. lag. Water-Water; 31 Jul 2019
  yongs bsnun, bkra shis, Horse, li 2
  4;13,39 5;44,43 6;52,22 12;37,5 3;1,42
  Solar: Earth-Snake. Zhen 3
30: Thu. nabs so. Wind-Wind; 1 Aug 2019
  dga' ba, klu, Sheep, khon 3
  5;8,38 6;47,54 6;56,33 13;44,27 3;2,41
  Solar: Iron-Horse. Jiao 4

Tibetan Lunar Month: 6 - Fire-female-Bird

1: Fri. rgyal. Earth-Fire; 2 Aug 2019
  rdo rje, gdab pa, Monkey, dwa 4
  6;2,37 7;52,5 7;0,43 14;52,48 3;3,39
  Solar: Iron-Sheep. Kang 5
2. Omitted: Bird khen 5
3: Sat. mchu. Earth-Fire; 3 Aug 2019
  phan tshun, til rdung, Dog, kham 6
  0;50,21 9;0,42 7;9,4 16;9,46 3;5,35
  Solar: Water-Monkey. Di 6
4: Sun. gre. Fire-Fire; 4 Aug 2019
  mchog can, tshong ba, Pig, gin 7
  1;44,13 10;5,0 7;13,14 17;18,14 3;6,34
  Solar: Water-Bird. Fang 7
  Turning of the Wheel of the Dharma.
5: Mon. dbo. Water-Wind; 5 Aug 2019
  yongs 'joms, gdab pa, Mouse, zin 8
  2;38,5 11;9,18 7;17,24 18;26,43 3;7,32
  Solar: Wood-Dog. Xin 8
6: Tue. me bzhi. Fire-Wind; 6 Aug 2019
  zhi ba, rigs can, Ox, zon 9
  3;31,57 12;13,37 7;21,34 19;35,12 3;8,30
  Solar: Wood-Pig. Wei 9
7: Wed. nag pa. Water-Wind; 7 Aug 2019
  grub pa, tshong ba, Tiger, li 1
  4;26,42 13;17,2 7;25,45 20;42,47 3;9,28
  Solar: Fire-Mouse. Ji 1
8: Thu. sa ri. Wind-Wind; 8 Aug 2019
  bsgrub bya, gdab pa, Rabbit, khon 2
  5;22,27 14;19,27 7;29,55 21;49,23 3;10,26
  Solar: Fire-Ox. Dou 2
9: Fri. sa ga. Earth-Fire; 9 Aug 2019
  dge ba, rigs can, Dragon, dwa 3
  6;19,12 15;20,53 7;34,5 22;54,59 3;11,25
  Solar: Earth-Tiger. Niu 3
10: Sat. lha mtshams. Earth-Earth; 10 Aug 2019
  dkar po, khyim skyes, Snake, khen 4
  0;16,57 16;21,18 7;38,16 23;59,34 3;12,23
  Solar: Earth-Rabbit. Nu 4
11: Sun. snron. Fire-Earth; 11 Aug 2019
  dbang po, vishti, Horse, kham 5
  1;16,35 17;19,50 7;42,26 25;2,17 3;13,21
  Solar: Iron-Dragon. Xu 5
12: Mon. snrubs. Water-Water; 12 Aug 2019
  'khon 'dzin, byis pa, Sheep, gin 6
  2;17,20 18;17,15 7;46,36 26;3,52 3;14,19
  Solar: Iron-Snake. Wei 6
13: Tue. chu stod. Fire-Water; 13 Aug 2019
  rnam sel, til rdung, Monkey, zin 7
  3;19,5 19;13,41 7;50,47 0;4,28 3;15,17
  Solar: Water-Horse. Shi 7
14: Wed. chu smad. Water-Earth; 14 Aug 2019
  mdza' bo, tshong ba, Bird, zon 8
  4;21,51 20;9,6 7;54,57 1;4,3 3;16,16
  Solar: Water-Sheep. Bi 8
15: Thu. gro zhin. Wind-Earth; 15 Aug 2019
  tshe dang ldan pa, gdab pa, Dog, li 9
  5;25,36 21;3,31 7;59,7 2;2,39 3;17,14
  Solar: Wood-Monkey. Kui 9
  The Buddha's entry into the womb of his mother.
16: Fri. gro zhin. Earth-Earth; 16 Aug 2019
  skal bzang, byis pa, Pig, khon 1
  6;29,28 21;57,49 8;3,17 3;1,7 3;18,12
  Solar: Wood-Bird. Lou 1
17: Sat. mon gre. Earth-Water; 17 Aug 2019
  skal bzang, til rdung, Mouse, dwa 2
  0;33,20 22;52,7 8;7,28 3;59,35 3;19,10
  Solar: Fire-Dog. Wei 2
18: Sun. mon gru. Fire-Earth; 18 Aug 2019
  dge byed, tshong ba, Ox, khen 3
  1;37,12 23;46,25 8;11,38 4;58,4 3;20,8
  Solar: Fire-Pig. Mao 3
19: Mon. khrums stod. Water-Fire; 19 Aug 2019
  shin tu 'grams, gdab pa, Tiger, kham 4
  2;41,4 24;40,44 8;15,48 5;56,32 3;21,7
  Solar: Earth-Mouse. Bi 4
20: Tue. khrums smad. Fire-Water; 20 Aug 2019
  las bzang, rigs can, Rabbit, gin 5
  3;44,56 25;35,2 8;19,59 6;55,1 3;22,5
  Solar: Earth-Ox. Zui 5
21: Wed. nam gru. Water-Water; 21 Aug 2019
  'dzin byed, khyim skyes, Dragon, zin 6
  4;47,55 26;30,13 8;24,9 7;54,23 3;23,3
  Solar: Iron-Tiger. Can 6
22: Thu. tha skar. Wind-Wind; 22 Aug 2019
  zug rngu, vishti, Snake, zon 7
  5;49,54 0;26,25 8;28,19 8;54,44 3;24,1
  Solar: Iron-Rabbit. Jing 7
23: Fri. bra nye. Earth-Fire; 23 Aug 2019
  'grams, byis pa, Horse, li 8
  6;50,53 1;23,36 8;32,30 9;56,6 3;25,0
  Solar: Water-Dragon. Gui 8
24: Sat. smin drug. Earth-Fire; 24 Aug 2019
  'phel, til rdung, Sheep, khon 9
  0;50,52 2;21,48 8;36,40 10;58,28 3;25,58
  Solar: Water-Snake. Liu 9
25: Sun. snar ma. Fire-Earth; 25 Aug 2019
  yongs bsnun, tshong ba, Monkey, dwa 1
  1;48,57 3;21,52 8;40,50 12;2,43 3;26,56
  Solar: Wood-Horse. Xing 1
26: Mon. mgo. Water-Wind; 26 Aug 2019
  dga' ba, gdab pa, Bird, khen 2
  2;45,56 4;23,4 8;45,0 13;8,5 3;27,54
  Solar: Wood-Sheep. Zhang 2
27: Tue. lag. Fire-Water; 27 Aug 2019
  rdo rje, rigs can, Dog, kham 3
  3;41,55 5;25,15 8;49,11 14;14,27 3;28,52
  Solar: Fire-Monkey. Yi 3
28: Wed. nabs so. Water-Wind; 28 Aug 2019
  dngos grub, khyim skyes, Pig, gin 4
  4;36,53 6;28,27 8;53,21 15;21,49 3;29,51
  Solar: Fire-Bird. Zhen 4
29: Thu. rgyal. Wind-Fire; 29 Aug 2019
  phan tshun, vishti, Mouse, zin 5
  5;30,55 7;32,39 8;57,35 16;30,14 4;0,49
  Solar: Earth-Dog. Jiao 5
30: Fri. skag. Earth-Water; 30 Aug 2019
  mchog can, klu, Ox, zon 6
  6;24,51 8;36,57 9;1,49 17;38,46 4;1,47
  Solar: Earth-Pig. Kang 6

Tibetan Lunar Month: 7 - Earth-male-Dog

1: Sat. mchu. Earth-Fire; 31 Aug 2019
  yongs 'joms, gdab pa, Tiger, li 7
  0;18,47 9;41,15 9;6,3 18;47,19 4;2,45
  Solar: Iron-Mouse. Di 7
2: Sun. gre. Fire-Fire; 1 Sep 2019
  zhi ba, rigs can, Rabbit, khon 8
  1;12,43 10;45,34 9;10,17 19;55,51 4;3,43
  Solar: Iron-Ox. Fang 8
3: Mon. dbo. Water-Wind; 2 Sep 2019
  bsgrub bya, khyim skyes, Dragon, dwa 9
  2;6,39 11;49,52 9;14,31 21;4,24 4;4,42
  Solar: Water-Tiger. Xin 9
4: Tue. me bzhi. Fire-Wind; 3 Sep 2019
  dge ba, vishti, Snake, khen 1
  3;0,34 12;54,10 9;18,45 22;12,56 4;5,40
  Solar: Water-Rabbit. Wei 1
5. Omitted: Horse kham 2
6: Wed. sa ri. Water-Wind; 4 Sep 2019
  dkar po, rigs can, Sheep, gin 3
  4;51,13 14;0,0 9;27,14 23;27,15 4;7,36
  Solar: Wood-Dragon. Ji 2
7: Thu. sa ga. Wind-Fire; 5 Sep 2019
  tshangs pa, khyim skyes, Monkey, zin 4
  5;48,2 15;1,25 9;31,28 24;32,54 4;8,34
  Solar: Wood-Snake. Dou 3
8: Fri. lha mtshams. Earth-Earth; 6 Sep 2019
  dbang po, vishti, Bird, zon 5
  6;45,52 16;1,50 9;35,42 25;37,33 4;9,33
  Solar: Fire-Horse. Niu 4
9: Sat. snron. Earth-Earth; 7 Sep 2019
  'khon 'dzin, byis pa, Dog, li 6
  0;45,35 17;0,21 9;39,56 26;40,18 4;10,31
  Solar: Fire-Sheep. Nu 5
10: Sun. snron. Fire-Earth; 8 Sep 2019
  rnam sel, til rdung, Pig, khon 7
  1;46,24 17;57,46 9;44,11 0;41,57 4;11,29
  Solar: Earth-Monkey. Xu 6
11: Mon. snrubs. Water-Water; 9 Sep 2019
  mdza' bo, tshong ba, Mouse, dwa 8
  2;48,13 18;54,11 9;48,25 1;42,36 4;12,27
  Solar: Earth-Bird. Wei 7
12: Tue. chu stod. Fire-Water; 10 Sep 2019
  tshe dang ldan pa, gdab pa, Ox, khen 9
  3;51,3 19;49,36 9;52,39 2;42,15 4;13,25
  Solar: Iron-Dog. Shi 8
13: Wed. chu smad. Water-Earth; 11 Sep 2019
  skal bzang, byis pa, Tiger, kham 1
  4;54,52 20;44,0 9;56,53 3;40,54 4;14,24
  Solar: Iron-Pig. Bi 9
14: Thu. gro zhin. Wind-Earth; 12 Sep 2019
  dge byed, til rdung, Rabbit, gin 2
  5;58,48 21;38,18 10;1,7 4;39,26 4;15,22
  Solar: Water-Mouse. Kui 1
15: Fri. mon gre. Earth-Water; 13 Sep 2019
  6;60,0 22;35,21 10;5,21 5;40,43 4;16,20
  Solar: Water-Ox. Lou 2
15: Sat. mon gru. Earth-Earth; 14 Sep 2019
  las bzang, gdab pa, Dragon, zin 3
  0;2,44 23;32,37 10;5,21 6;37,59 4;16,20
  Solar: Wood-Tiger. Wei 3
16: Sun. khrums stod. Fire-Fire; 15 Sep 2019
  'dzin byed, rigs can, Snake, zon 4
  1;6,40 24;26,55 10;9,36 7;36,31 4;17,18
  Solar: Wood-Rabbit. Mao 4
17: Mon. khrums smad. Water-Water; 16 Sep 2019
  zug rngu, khyim skyes, Horse, li 5
  2;10,36 25;21,13 10;13,50 8;35,3 4;18,17
  Solar: Fire-Dragon. Bi 5
18: Tue. nam gru. Fire-Water; 17 Sep 2019
  'grams, vishti, Sheep, khon 6
  3;14,32 26;15,31 10;18,4 9;33,36 4;19,15
  Solar: Fire-Snake. Zui 6
19: Wed. tha skar. Water-Wind; 18 Sep 2019
  'phel, byis pa, Monkey, dwa 7
  4;17,35 0;10,43 10;22,18 10;33,2 4;20,13
  Solar: Earth-Horse. Can 7
20: Thu. bra nye. Wind-Fire; 19 Sep 2019
  brtan pa, til rdung, Bird, khen 8
  5;19,37 1;6,55 10;26,32 11;33,28 4;21,11
  Solar: Earth-Sheep. Jing 8
21: Fri. smin drug. Earth-Fire; 20 Sep 2019
  yongs bsnun, tshong ba, Dog, kham 9
  6;20,39 2;4,7 10;30,47 12;34,54 4;22,9
  Solar: Iron-Monkey. Gui 9
22: Sat. snar ma. Earth-Earth; 21 Sep 2019
  dga' ba, gdab pa, Pig, gin 1
  0;20,42 3;2,19 10;35,1 13;37,20 4;23,8
  Solar: Iron-Bird. Liu 1
23: Sun. mgo. Fire-Wind; 22 Sep 2019
  rdo rje, rigs can, Mouse, zin 2
  1;18,50 4;2,24 10;39,15 14;41,40 4;24,6
  Solar: Water-Dog. Xing 2
24: Mon. lag. Water-Water; 23 Sep 2019
  dngos grub, khyim skyes, Ox, zon 3
  2;15,52 5;3,36 10;43,29 15;47,6 4;25,4
  Solar: Water-Pig. Zhang 3
25: Tue. nabs so. Fire-Wind; 24 Sep 2019
  phan tshun, vishti, Tiger, li 4
  3;11,54 6;5,48 10;47,43 16;53,32 4;26,2
  Solar: Wood-Mouse. Yi 4
26: Wed. rgyal. Water-Fire; 25 Sep 2019
  yongs 'joms, byis pa, Rabbit, khon 5
  4;6,57 7;9,0 10;51,57 18;0,58 4;27,0
  Solar: Wood-Ox. Zhen 5
27: Thu. skag. Wind-Water; 26 Sep 2019
  zhi ba, til rdung, Dragon, dwa 6
  5;0,59 8;13,13 10;56,12 19;9,25 4;27,59
  Solar: Fire-Tiger. Jiao 6
28. Omitted: Snake khen 7
29: Fri. mchu. Earth-Fire; 27 Sep 2019
  grub pa, vishti, Horse, kham 8
  6;48,50 9;21,49 11;4,40 20;26,30 4;29,55
  Solar: Fire-Rabbit. Kang 7
30: Sat. gre. Earth-Fire; 28 Sep 2019
  bsgrub bya, rkang bzhi, Sheep, gin 9
  0;42,51 10;26,8 11;9,0 21;35,8 5;0,53
  Solar: Earth-Dragon. Di 8

Tibetan Lunar Month: 8 - Earth-female-Pig

1: Sun. dbo. Fire-Wind; 29 Sep 2019
  dge ba, mi sdug pa, Monkey, zin 1
  1;36,53 11;30,26 11;13,20 22;43,46 5;1,51
  Solar: Earth-Snake. Fang 9
2: Mon. me bzhi. Water-Wind; 30 Sep 2019
  dkar po, byis pa, Bird, zon 2
  2;30,55 12;34,44 11;17,40 23;52,24 5;2,50
  Solar: Iron-Horse. Xin 1
3: Tue. nag pa. Fire-Wind; 1 Oct 2019
  dbang po, khyim skyes, Dog, li 3
  3;25,50 13;38,9 11;22,0 25;0,9 5;3,48
  Solar: Iron-Sheep. Wei 2
4: Wed. sa ri. Water-Wind; 2 Oct 2019
  'khon 'dzin, vishti, Pig, khon 4
  4;21,46 14;40,33 11;26,20 26;6,53 5;4,46
  Solar: Water-Monkey. Ji 3
5: Thu. sa ga. Wind-Fire; 3 Oct 2019
  rnam sel, byis pa, Mouse, dwa 5
  5;18,41 15;41,58 11;30,40 0;12,38 5;5,44
  Solar: Water-Bird. Dou 4
6: Fri. lha mtshams. Earth-Earth; 4 Oct 2019
  mdza' bo, til rdung, Ox, khen 6
  6;16,37 16;42,22 11;35,0 1;17,22 5;6,42
  Solar: Wood-Dog. Niu 5
7: Sat. snron. Earth-Earth; 5 Oct 2019
  tshe dang ldan pa, tshong ba, Tiger, kham 7
  0;16,27 17;40,52 11;39,20 2;20,12 5;7,41
  Solar: Wood-Pig. Nu 6
8: Sun. snrubs. Fire-Water; 6 Oct 2019
  skal bzang, gdab pa, Rabbit, gin 8
  1;17,22 18;38,17 11;43,40 3;21,57 5;8,39
  Solar: Fire-Mouse. Xu 7
9: Mon. chu stod. Water-Water; 7 Oct 2019
  dge byed, rigs can, Dragon, zin 9
  2;19,18 19;34,41 11;48,0 4;22,41 5;9,37
  Solar: Fire-Ox. Wei 8
10: Tue. chu smad. Fire-Earth; 8 Oct 2019
  shin tu 'grams, khyim skyes, Snake, zon 1
  3;22,14 20;30,5 11;52,20 5;22,25 5;10,35
  Solar: Earth-Tiger. Shi 9
11: Wed. gro zhin. Water-Earth; 9 Oct 2019
  las bzang, vishti, Horse, li 2
  4;26,9 21;24,30 11;56,40 6;21,10 5;11,34
  Solar: Earth-Rabbit. Bi 1
12: Thu. mon gre. Wind-Water; 10 Oct 2019
  'dzin byed, gdab pa, Sheep, khon 3
  5;30,11 22;18,48 12;1,0 7;19,48 5;12,32
  Solar: Iron-Dragon. Kui 2
13: Fri. mon gru. Earth-Earth; 11 Oct 2019
  zug rngu, rigs can, Monkey, dwa 4
  6;34,13 23;13,6 12;5,20 8;18,26 5;13,30
  Solar: Iron-Snake. Lou 3
14: Sat. khrums stod. Earth-Fire; 12 Oct 2019
  'grams, khyim skyes, Bird, khen 5
  0;38,15 24;7,24 12;9,40 9;17,4 5;14,28
  Solar: Water-Horse. Wei 4
15: Sun. khrums smad. Fire-Water; 13 Oct 2019
  'phel, vishti, Dog, kham 6
  1;42,17 25;1,42 12;14,0 10;15,42 5;15,26
  Solar: Water-Sheep. Mao 5
16: Mon. khrums smad. Water-Water; 14 Oct 2019
  brtan pa, byis pa, Pig, gin 7
  2;46,18 25;56,1 12;18,20 11;14,21 5;16,25
  Solar: Wood-Monkey. Bi 6
17: Tue. nam gru. Fire-Water; 15 Oct 2019
  yongs bsnun, til rdung, Mouse, zin 8
  3;49,26 26;51,13 12;22,40 12;13,53 5;17,23
  Solar: Wood-Bird. Zui 7
18: Wed. tha skar. Water-Wind; 16 Oct 2019
  dga' ba, tshong ba, Ox, zon 9
  4;51,34 0;47,25 12;27,0 13;14,25 5;18,21
  Solar: Fire-Dog. Can 8
19: Thu. bra nye. Wind-Fire; 17 Oct 2019
  rdo rje, gdab pa, Tiger, li 1
  5;52,42 1;44,37 12;31,20 14;15,57 5;19,19
  Solar: Fire-Pig. Jing 9
20: Fri. smin drug. Earth-Fire; 18 Oct 2019
  dngos grub, rigs can, Rabbit, khon 2
  6;52,49 2;42,50 12;35,40 15;18,30 5;20,17
  Solar: Earth-Mouse. Gui 1
21: Sat. snar ma. Earth-Earth; 19 Oct 2019
  phan tshun, khyim skyes, Dragon, dwa 3
  0;51,3 3;42,56 12;40,0 16;22,56 5;21,16
  Solar: Earth-Ox. Liu 2
22: Sun. mgo. Fire-Wind; 20 Oct 2019
  mchog can, vishti, Snake, khen 4
  1;48,10 4;44,9 12;44,20 17;28,29 5;22,14
  Solar: Iron-Tiger. Xing 3
23: Mon. lag. Water-Water; 21 Oct 2019
  yongs 'joms, byis pa, Horse, kham 5
  2;44,18 5;46,21 12;48,40 18;35,1 5;23,12
  Solar: Iron-Rabbit. Zhang 4
24: Tue. nabs so. Fire-Wind; 22 Oct 2019
  zhi ba, til rdung, Sheep, gin 6
  3;39,25 6;49,34 12;53,0 19;42,34 5;24,10
  Solar: Water-Dragon. Yi 5
25: Wed. rgyal. Water-Fire; 23 Oct 2019
  grub pa, tshong ba, Monkey, zin 7
  4;33,33 7;53,46 12;57,20 20;51,6 5;25,8
  Solar: Water-Snake. Zhen 6
26: Thu. skag. Wind-Water; 24 Oct 2019
  bsgrub bya, gdab pa, Bird, zon 8
  5;27,34 8;58,5 13;1,40 21;59,45 5;26,7
  Solar: Wood-Horse. Jiao 7
27: Fri. gre. Earth-Fire; 25 Oct 2019
  dkar po, til rdung, Dog, li 9
  6;21,36 10;2,23 13;6,0 23;8,23 5;27,5
  Solar: Wood-Sheep. Kang 8
28: Sat. dbo. Earth-Wind; 26 Oct 2019
  tshangs pa, tshong ba, Pig, khon 1
  0;15,38 11;6,41 13;10,20 24;17,1 5;28,3
  Solar: Fire-Monkey. Di 9
29: Sun. me bzhi. Fire-Wind; 27 Oct 2019
  dbang po, bkra shis, Mouse, dwa 2
  1;9,39 12;11,0 13;14,40 25;25,40 5;29,1
  Solar: Fire-Bird. Fang 1
30: Mon. nag pa. Water-Wind; 28 Oct 2019
  'khon 'dzin, klu, Ox, khen 3
  2;3,41 13;15,18 13;19,0 26;34,18 6;0,0
  Solar: Earth-Dog. Xin 2

Tibetan Lunar Month: 9 - Iron-male-Mouse

1. Omitted: Tiger kham 4
2: Tue. sa ri. Fire-Wind; 29 Oct 2019
  rnam sel, gdab pa, Rabbit, gin 5
  3;54,41 14;21,6 13;27,47 0;48,54 6;1,56
  Solar: Earth-Pig. Wei 3
3: Wed. sa ga. Water-Fire; 30 Oct 2019
  mdza' bo, til rdung, Dragon, zin 6
  4;51,41 15;22,30 13;32,11 1;54,42 6;2,54
  Solar: Iron-Mouse. Ji 4
4: Thu. lha mtshams. Wind-Earth; 31 Oct 2019
  tshe dang ldan pa, tshong ba, Snake, zon 7
  5;49,40 16;22,54 13;36,35 2;59,30 6;3,52
  Solar: Iron-Ox. Dou 5
5: Fri. snron. Earth-Earth; 1 Nov 2019
  dge byed, gdab pa, Horse, li 8
  6;49,35 17;21,24 13;40,59 4;2,23 6;4,51
  Solar: Water-Tiger. Niu 6
6: Sat. snrubs. Earth-Water; 2 Nov 2019
  shin tu 'grams, rigs can, Sheep, khon 9
  0;50,35 18;18,47 13;45,23 5;4,11 6;5,49
  Solar: Water-Rabbit. Nu 7
7: Sun. chu stod. Fire-Water; 3 Nov 2019
  las bzang, khyim skyes, Monkey, dwa 1
  1;52,35 19;15,11 13;49,47 6;4,58 6;6,47
  Solar: Wood-Dragon. Xu 8
8: Mon. chu smad. Water-Earth; 4 Nov 2019
  'dzin byed, tshong ba, Bird, khen 2
  2;55,35 20;10,35 13;54,11 7;4,46 6;7,45
  Solar: Wood-Snake. Wei 9
9: Tue. gro zhin. Fire-Earth; 5 Nov 2019
  zug rngu, gdab pa, Dog, kham 3
  3;59,35 21;4,59 13;58,34 8;3,34 6;8,43
  Solar: Fire-Horse. Shi 1
10: Wed. mon gre. Water-Water; 6 Nov 2019
  4;60,0 22;2,58 14;2,58 9;5,57 6;9,42
  Solar: Fire-Sheep. Bi 2
10: Thu. mon gre. Wind-Water; 7 Nov 2019
  'phel, khyim skyes, Pig, gin 4
  5;3,41 22;59,17 14;2,58 10;2,16 6;9,42
  Solar: Earth-Monkey. Kui 3
11: Fri. mon gru. Earth-Earth; 8 Nov 2019
  brtan pa, vishti, Mouse, zin 5
  6;7,46 23;53,35 14;7,22 11;0,58 6;10,40
  Solar: Earth-Bird. Lou 4
12: Sat. khrums stod. Earth-Fire; 9 Nov 2019
  brtan pa, byis pa, Ox, zon 6
  0;11,52 24;47,53 14;11,46 11;59,40 6;11,38
  Solar: Iron-Dog. Wei 5
13: Sun. khrums smad. Fire-Water; 10 Nov 2019
  yongs bsnun, til rdung, Tiger, li 7
  1;15,58 25;42,12 14;16,10 12;58,22 6;12,36
  Solar: Iron-Pig. Mao 6
14: Mon. nam gru. Water-Water; 11 Nov 2019
  dga' ba, tshong ba, Rabbit, khon 8
  2;20,3 26;36,30 14;20,34 13;57,4 6;13,34
  Solar: Water-Mouse. Bi 7
15: Tue. tha skar. Fire-Wind; 12 Nov 2019
  rdo rje, gdab pa, Dragon, dwa 9
  3;23,15 0;31,43 14;24,58 14;56,41 6;14,33
  Solar: Water-Ox. Zui 8
16: Wed. bra nye. Water-Fire; 13 Nov 2019
  dngos grub, rigs can, Snake, khen 1
  4;25,26 1;27,55 14;29,22 15;57,17 6;15,31
  Solar: Wood-Tiger. Can 9
17: Thu. smin drug. Wind-Fire; 14 Nov 2019
  phan tshun, khyim skyes, Horse, kham 2
  5;26,37 2;25,8 14;33,45 16;58,54 6;16,29
  Solar: Wood-Rabbit. Jing 1
18: Fri. snar ma. Earth-Earth; 15 Nov 2019
  yongs 'joms, vishti, Sheep, gin 3
  6;26,48 3;23,21 14;38,9 18;1,31 6;17,27
  Solar: Fire-Dragon. Gui 2
19: Sat. mgo. Earth-Wind; 16 Nov 2019
  zhi ba, byis pa, Monkey, zin 4
  0;25,4 4;23,28 14;42,33 19;6,2 6;18,25
  Solar: Fire-Snake. Liu 3
20: Sun. lag. Fire-Water; 17 Nov 2019
  grub pa, til rdung, Bird, zon 5
  1;22,15 5;24,41 14;46,57 20;11,39 6;19,24
  Solar: Earth-Horse. Xing 4
21: Mon. nabs so. Water-Wind; 18 Nov 2019
  bsgrub bya, tshong ba, Dog, li 6
  2;18,26 6;26,54 14;51,21 21;18,16 6;20,22
  Solar: Earth-Sheep. Zhang 5
22: Tue. rgyal. Fire-Fire; 19 Nov 2019
  dge ba, gdab pa, Pig, khon 7
  3;13,37 7;30,7 14;55,45 22;25,52 6;21,20
  Solar: Iron-Monkey. Yi 6
  Descent of the Buddha from the realm of the gods.
23: Wed. skag. Water-Water; 20 Nov 2019
  dkar po, rigs can, Mouse, dwa 8
  4;7,48 8;34,20 15;0,9 23;34,29 6;22,18
  Solar: Iron-Bird. Zhen 7
24: Thu. mchu. Wind-Fire; 21 Nov 2019
  tshangs pa, khyim skyes, Ox, khen 9
  5;1,54 9;38,38 15;4,33 24;43,12 6;23,17
  Solar: Water-Dog. Jiao 8
25. Omitted: Tiger kham 1
26: Fri. gre. Earth-Fire; 22 Nov 2019
  'khon 'dzin, gdab pa, Rabbit, gin 2
  6;50,5 10;47,15 15;13,20 26;0,36 6;25,13
  Solar: Water-Pig. Kang 9
27: Sat. dbo. Earth-Wind; 23 Nov 2019
  rnam sel, rigs can, Dragon, zin 3
  0;44,10 11;51,33 15;17,44 0;9,18 6;26,11
  Solar: Wood-Mouse. Di 1
28: Sun. me bzhi. Fire-Wind; 24 Nov 2019
  mdza' bo, khyim skyes, Snake, zon 4
  1;38,16 12;55,52 15;22,8 1;18,0 6;27,9
  Solar: Wood-Ox. Fang 2
29: Mon. nag pa. Water-Wind; 25 Nov 2019
  tshe dang ldan pa, vishti, Horse, li 5
  2;33,16 13;59,15 15;26,32 2;25,48 6;28,8
  Solar: Fire-Tiger. Xin 3
30: Tue. sa ga. Fire-Fire; 26 Nov 2019
  skal bzang, rkang bzhi, Sheep, khon 6
  3;29,16 15;1,39 15;30,56 3;32,35 6;29,6
  Solar: Fire-Rabbit. Wei 4

Tibetan Lunar Month: 10 - Iron-female-Ox

1: Wed. lha mtshams. Water-Earth; 27 Nov 2019
  dge byed, gdab pa, Monkey, dwa 7
  4;26,17 16;3,3 15;35,20 4;38,23 7;0,4
  Solar: Earth-Dragon. Ji 5
2: Thu. snron. Wind-Earth; 28 Nov 2019
  shin tu 'grams, rigs can, Bird, khen 8
  5;24,23 17;3,26 15;39,50 5;43,16 7;1,2
  Solar: Earth-Snake. Dou 6
3: Fri. snrubs. Earth-Water; 29 Nov 2019
  las bzang, khyim skyes, Dog, kham 9
  6;24,24 18;1,55 15;44,20 6;46,15 7;2,0
  Solar: Iron-Horse. Niu 7
4: Sat. snrubs. Earth-Water; 30 Nov 2019
  'dzin byed, vishti, Pig, gin 1
  0;25,31 18;59,18 15;48,49 7;48,8 7;2,59
  Solar: Iron-Sheep. Nu 8
5: Sun. chu stod. Fire-Water; 1 Dec 2019
  zug rngu, gdab pa, Mouse, zin 2
  1;27,37 19;55,42 15;53,19 8;49,1 7;3,57
  Solar: Water-Monkey. Xu 9
6: Mon. chu smad. Water-Earth; 2 Dec 2019
  'grams, rigs can, Ox, zon 3
  2;30,43 20;51,5 15;57,49 9;48,54 7;4,55
  Solar: Water-Bird. Wei 1
7: Tue. gro zhin. Fire-Earth; 3 Dec 2019
  'phel, khyim skyes, Tiger, li 4
  3;34,50 21;45,28 16;2,18 10;47,47 7;5,53
  Solar: Wood-Dog. Shi 2
8: Wed. mon gre. Water-Water; 4 Dec 2019
  brtan pa, vishti, Rabbit, khon 5
  4;39,1 22;39,46 16;6,48 11;46,35 7;6,51
  Solar: Wood-Pig. Bi 3
9: Thu. mon gru. Wind-Earth; 5 Dec 2019
  yongs bsnun, byis pa, Dragon, dwa 6
  5;43,13 23;34,5 16;11,18 12;45,23 7;7,50
  Solar: Fire-Mouse. Kui 4
10: Fri. khrums stod. Earth-Fire; 6 Dec 2019
  dga' ba, til rdung, Snake, khen 7
  6;47,24 24;28,23 16;15,48 13;44,11 7;8,48
  Solar: Fire-Ox. Lou 5
11: Sat. khrums smad. Earth-Water; 7 Dec 2019
  rdo rje, tshong ba, Horse, kham 8
  0;51,36 25;22,41 16;20,17 14;42,59 7;9,46
  Solar: Earth-Tiger. Wei 6
12: Sun. nam gru. Fire-Water; 8 Dec 2019
  dngos grub, vishti, Sheep, gin 9
  1;55,47 26;16,59 16;24,47 15;41,47 7;10,44
  Solar: Earth-Rabbit. Mao 7
13: Mon. tha skar. Water-Wind; 9 Dec 2019
  phan tshun, byis pa, Monkey, zin 1
  2;59,4 0;12,12 16;29,17 16;41,30 7;11,42
  Solar: Iron-Dragon. Bi 8
14: Tue. bra nye. Fire-Fire; 10 Dec 2019
  3;60,0 1;9,46 16;33,46 17;43,33 7;12,41
  Solar: Iron-Snake. Zui 9
14: Wed. smin drug. Water-Fire; 11 Dec 2019
  yongs 'joms, tshong ba, Bird, zon 2
  4;1,20 2;8,26 16;33,46 18;42,12 7;12,41
  Solar: Water-Horse. Can 1
15: Thu. snar ma. Wind-Earth; 12 Dec 2019
  zhi ba, gdab pa, Dog, li 3
  5;2,37 3;5,39 16;38,16 19;43,55 7;13,39
  Solar: Water-Sheep. Jing 2
16: Fri. mgo. Earth-Wind; 13 Dec 2019
  grub pa, rigs can, Pig, khon 4
  6;2,53 4;3,52 16;42,46 20;46,38 7;14,37
  Solar: Wood-Monkey. Gui 3
17: Sat. lag. Earth-Water; 14 Dec 2019
  bsgrub bya, khyim skyes, Mouse, dwa 5
  0;1,15 5;4,0 16;47,15 21;51,16 7;15,35
  Solar: Wood-Bird. Liu 4
18. Omitted: Ox khen 6
19: Sun. nabs so. Fire-Wind; 15 Dec 2019
  dkar po, vishti, Tiger, kham 7
  1;54,47 6;7,27 16;56,15 23;3,42 7;17,32
  Solar: Fire-Dog. Xing 5
20: Mon. rgyal. Water-Fire; 16 Dec 2019
  tshangs pa, rigs can, Rabbit, gin 8
  2;50,4 7;10,40 17;0,45 24;11,25 7;18,30
  Solar: Fire-Pig. Zhang 6
21: Tue. skag. Fire-Water; 17 Dec 2019
  dbang po, khyim skyes, Dragon, zin 9
  3;44,20 8;14,54 17;5,14 25;20,9 7;19,28
  Solar: Earth-Mouse. Yi 7
22: Wed. mchu. Water-Fire; 18 Dec 2019
  'khon 'dzin, vishti, Snake, zon 1
  4;38,31 9;19,12 17;9,44 26;28,57 7;20,26
  Solar: Earth-Ox. Zhen 8
23: Thu. gre. Wind-Fire; 19 Dec 2019
  rnam sel, byis pa, Horse, li 2
  5;32,43 10;23,31 17;14,14 0;37,45 7;21,25
  Solar: Iron-Tiger. Jiao 9
24: Fri. dbo. Earth-Wind; 20 Dec 2019
  mdza' bo, khyim skyes, Sheep, khon 3
  6;26,54 11;27,49 17;18,43 1;46,33 7;22,23
  Solar: Iron-Rabbit. Kang 1
25: Sat. me bzhi. Earth-Wind; 21 Dec 2019
  tshe dang ldan pa, vishti, Monkey, dwa 4
  0;21,5 12;32,7 17;23,13 2;55,21 7;23,21
  Solar: Water-Dragon. Di 2
26: Sun. nag pa. Fire-Wind; 22 Dec 2019
  dge byed, byis pa, Bird, khen 5
  1;15,17 13;36,26 17;27,43 4;4,9 7;24,19
  Solar: Water-Snake. Fang 3
27: Mon. sa ri. Water-Wind; 23 Dec 2019
  shin tu 'grams, til rdung, Dog, kham 6
  2;10,23 14;39,49 17;32,12 5;12,2 7;25,17
  Solar: Wood-Horse. Xin 4
28: Tue. sa ga. Fire-Fire; 24 Dec 2019
  las bzang, tshong ba, Pig, gin 7
  3;6,30 15;42,12 17;36,42 6;18,55 7;26,16
  Solar: Wood-Sheep. Wei 5
29: Wed. lha mtshams. Water-Earth; 25 Dec 2019
  'dzin byed, bkra shis, Mouse, zin 8
  4;3,36 16;43,35 17;41,12 7;24,47 7;27,14
  Solar: Fire-Monkey. Ji 6
30: Thu. snron. Wind-Earth; 26 Dec 2019
  zug rngu, klu, Ox, zon 9
  5;1,43 17;43,58 17;45,42 8;29,40 7;28,12
  Solar: Fire-Bird. Dou 7

Tibetan Lunar Month: 11 - Water-male-Tiger

1: Fri. snrubs. Earth-Water; 27 Dec 2019
  'grams, gdab pa, Tiger, li 1
  6;1,45 18;42,26 17;50,11 9;32,38 7;29,10
  Solar: Earth-Dog. Niu 8
2: Sat. chu stod. Earth-Water; 28 Dec 2019
  'phel, rigs can, Rabbit, khon 2
  0;2,52 19;39,49 17;54,42 10;34,31 8;0,8
  Solar: Earth-Pig. Nu 9
3: Sun. chu smad. Fire-Earth; 29 Dec 2019
  brtan pa, khyim skyes, Dragon, dwa 3
  1;5,3 20;36,12 17;59,15 11;35,27 8;1,7
  Solar: Iron-Mouse. Xu 1
4: Mon. gro zhin. Water-Earth; 30 Dec 2019
  yongs bsnun, vishti, Snake, khen 4
  2;8,14 21;31,35 18;3,49 12;35,24 8;2,5
  Solar: Iron-Ox. Wei 2
5: Tue. mon gre. Fire-Water; 31 Dec 2019
  dga' ba, byis pa, Horse, kham 5
  3;12,24 22;25,58 18;8,22 13;34,20 8;3,3
  Solar: Water-Tiger. Shi 3
6: Wed. mon gru. Water-Earth; 1 Jan 2020
  rdo rje, til rdung, Sheep, gin 6
  4;16,40 23;20,16 18;12,56 14;33,12 8;4,1
  Solar: Water-Rabbit. Bi 4
7: Thu. khrums stod. Wind-Fire; 2 Jan 2020
  dngos grub, tshong ba, Monkey, zin 7
  5;20,55 24;14,34 18;17,30 15;32,4 8;5,0
  Solar: Wood-Dragon. Kui 5
8: Fri. khrums smad. Earth-Water; 3 Jan 2020
  phan tshun, gdab pa, Bird, zon 8
  6;25,10 25;8,52 18;22,3 16;30,56 8;5,58
  Solar: Wood-Snake. Lou 6
9: Sat. nam gru. Earth-Water; 4 Jan 2020
  mchog can, byis pa, Dog, li 9
  0;29,26 26;3,10 18;26,37 17;29,47 8;6,56
  Solar: Fire-Horse. Wei 7
10: Sun. nam gru. Fire-Water; 5 Jan 2020
  yongs 'joms, til rdung, Pig, khon 1
  1;33,41 26;57,29 18;31,10 18;28,39 8;7,54
  Solar: Fire-Sheep. Mao 8
11: Mon. tha skar. Water-Wind; 6 Jan 2020
  zhi ba, tshong ba, Mouse, dwa 2
  2;37,1 0;52,42 18;35,44 19;28,26 8;8,52
  Solar: Earth-Monkey. Bi 9
12: Tue. bra nye. Fire-Fire; 7 Jan 2020
  grub pa, gdab pa, Ox, khen 3
  3;39,21 1;48,56 18;40,17 20;29,14 8;9,51
  Solar: Earth-Bird. Zui 1
13: Wed. smin drug. Water-Fire; 8 Jan 2020
  bsgrub bya, rigs can, Tiger, kham 4
  4;40,41 2;46,9 18;44,51 21;31,1 8;10,49
  Solar: Iron-Dog. Can 2
14: Thu. snar ma. Wind-Earth; 9 Jan 2020
  dge ba, khyim skyes, Rabbit, gin 5
  5;41,1 3;44,23 18;49,25 22;33,48 8;11,47
  Solar: Iron-Pig. Jing 3
15: Fri. mgo. Earth-Wind; 10 Jan 2020
  dkar po, vishti, Dragon, zin 6
  6;39,25 4;44,32 18;53,58 23;38,31 8;12,45
  Solar: Water-Mouse. Gui 4
16: Sat. lag. Earth-Water; 11 Jan 2020
  tshangs pa, byis pa, Snake, zon 7
  0;36,45 5;45,46 18;58,32 24;44,18 8;13,43
  Solar: Water-Ox. Liu 5
17: Sun. nabs so. Fire-Wind; 12 Jan 2020
  dbang po, til rdung, Horse, li 8
  1;33,5 6;48,0 19;3,5 25;51,6 8;14,42
  Solar: Wood-Tiger. Xing 6
18: Mon. rgyal. Water-Fire; 13 Jan 2020
  'khon 'dzin, tshong ba, Sheep, khon 9
  2;28,25 7;51,14 19;7,39 26;58,53 8;15,40
  Solar: Wood-Rabbit. Zhang 7
19: Tue. skag. Fire-Water; 14 Jan 2020
  mdza' bo, byis pa, Monkey, dwa 1
  3;22,44 8;55,28 19;12,12 1;7,41 8;16,38
  Solar: Fire-Dragon. Yi 8
20: Wed. mchu. Water-Fire; 15 Jan 2020
  tshe dang ldan pa, til rdung, Bird, khen 2
  4;17,0 9;59,46 19;16,46 2;16,33 8;17,36
  Solar: Fire-Snake. Zhen 9
21: Thu. dbo. Wind-Wind; 16 Jan 2020
  skal bzang, tshong ba, Dog, kham 3
  5;11,15 11;4,4 19;21,20 3;25,24 8;18,34
  Solar: Earth-Horse. Jiao 1
22: Fri. me bzhi. Earth-Wind; 17 Jan 2020
  dge byed, gdab pa, Pig, gin 4
  6;5,30 12;8,23 19;25,53 4;34,16 8;19,33
  Solar: Earth-Sheep. Kang 2
23. Omitted: Mouse zin 5
24: Sat. nag pa. Earth-Wind; 18 Jan 2020
  shin tu 'grams, rigs can, Ox, zon 6
  0;54,1 13;16,59 19;35,0 5;52,0 8;21,29
  Solar: Iron-Monkey. Di 3
25: Sun. sa ri. Fire-Wind; 19 Jan 2020
  las bzang, tshong ba, Tiger, li 7
  1;49,11 14;20,22 19;39,34 6;59,57 8;22,27
  Solar: Iron-Bird. Fang 4
26: Mon. sa ga. Water-Fire; 20 Jan 2020
  zug rngu, gdab pa, Rabbit, khon 8
  2;45,22 15;22,45 19;44,8 8;6,53 8;23,25
  Solar: Water-Dog. Xin 5
27: Tue. lha mtshams. Fire-Earth; 21 Jan 2020
  'grams, rigs can, Dragon, dwa 9
  3;42,33 16;24,7 19;48,41 9;12,49 8;24,24
  Solar: Water-Pig. Wei 6
28: Wed. snron. Water-Earth; 22 Jan 2020
  'phel, khyim skyes, Snake, khen 1
  4;40,44 17;24,30 19;53,15 10;17,45 8;25,22
  Solar: Wood-Mouse. Ji 7
29: Thu. snrubs. Wind-Water; 23 Jan 2020
  brtan pa, vishti, Horse, kham 2
  5;40,51 18;22,57 19;57,48 11;20,46 8;26,20
  Solar: Wood-Ox. Dou 8
30: Fri. chu stod. Earth-Water; 24 Jan 2020
  yongs bsnun, rkang bzhi, Sheep, gin 3
  6;42,2 19;20,19 20;2,22 12;22,42 8;27,18
  Solar: Fire-Tiger. Niu 9

Tibetan Lunar Month: 12 - Water-female-Rabbit

1: Sat. chu smad. Earth-Earth; 25 Jan 2020
  dga' ba, mi sdug pa, Monkey, zin 4
  0;44,13 20;16,42 20;6,55 13;23,38 8;28,17
  Solar: Fire-Rabbit. Nu 1
2: Sun. gro zhin. Fire-Earth; 26 Jan 2020
  rdo rje, byis pa, Bird, zon 5
  1;47,24 21;12,4 20;11,29 14;23,34 8;29,15
  Solar: Earth-Dragon. Xu 2
3: Mon. mon gre. Water-Water; 27 Jan 2020
  dngos grub, til rdung, Dog, li 6
  2;51,35 22;6,27 20;16,3 15;22,30 9;0,13
  Solar: Earth-Snake. Wei 3
4: Tue. mon gru. Fire-Earth; 28 Jan 2020
  phan tshun, khyim skyes, Pig, khon 7
  3;55,51 23;0,45 20;20,36 16;21,22 9;1,11
  Solar: Iron-Horse. Shi 4
5: Wed. mon gru. Water-Earth; 29 Jan 2020
  4;60,0 23;55,10 20;25,10 17;20,20 9;2,9
  Solar: Iron-Sheep. Bi 5
5: Thu. khrums stod. Wind-Fire; 30 Jan 2020
  yongs 'joms, byis pa, Mouse, dwa 8
  5;0,6 24;55,3 20;25,10 18;20,14 9;2,9
  Solar: Water-Monkey. Kui 6
6: Fri. khrums smad. Earth-Water; 31 Jan 2020
  zhi ba, til rdung, Ox, khen 9
  6;4,21 25;49,21 20;29,43 19;19,5 9;3,8
  Solar: Water-Bird. Lou 7
7: Sat. nam gru. Earth-Water; 1 Feb 2020
  grub pa, tshong ba, Tiger, kham 1
  0;8,37 26;43,40 20;34,17 20;17,57 9;4,6
  Solar: Wood-Dog. Wei 8
8: Sun. tha skar. Fire-Wind; 2 Feb 2020
  bsgrub bya, gdab pa, Rabbit, gin 2
  1;12,52 0;37,58 20;38,51 21;16,49 9;5,4
  Solar: Wood-Pig. Mao 9
9: Mon. bra nye. Water-Fire; 3 Feb 2020
  dge ba, rigs can, Dragon, zin 3
  2;16,12 1;33,12 20;43,24 22;16,37 9;6,2
  Solar: Fire-Mouse. Bi 1
10: Tue. smin drug. Fire-Fire; 4 Feb 2020
  dkar po, khyim skyes, Snake, zon 4
  3;18,31 2;29,26 20;47,58 23;17,24 9;7,0
  Solar: Fire-Ox. Zui 2
11: Wed. snar ma. Water-Earth; 5 Feb 2020
  tshangs pa, vishti, Horse, li 5
  4;19,51 3;26,40 20;52,31 24;19,12 9;7,59
  Solar: Earth-Tiger. Can 3
12: Thu. mgo. Wind-Wind; 6 Feb 2020
  dbang po, byis pa, Sheep, khon 6
  5;20,10 4;24,54 20;57,5 25;22,0 9;8,57
  Solar: Earth-Rabbit. Jing 4
13: Fri. lag. Earth-Water; 7 Feb 2020
  'khon 'dzin, til rdung, Monkey, dwa 7
  6;18,34 5;25,4 21;1,38 26;26,43 9;9,55
  Solar: Iron-Dragon. Gui 5
14: Sat. nabs so. Earth-Wind; 8 Feb 2020
  rnam sel, tshong ba, Bird, khen 8
  0;15,53 6;26,19 21;6,12 0;32,31 9;10,53
  Solar: Iron-Snake. Liu 6
15: Sun. rgyal. Fire-Fire; 9 Feb 2020
  mdza' bo, gdab pa, Dog, kham 9
  1;12,12 7;28,33 21;10,46 1;39,19 9;11,51
  Solar: Water-Horse. Xing 7
16: Mon. skag. Water-Water; 10 Feb 2020
  tshe dang ldan pa, rigs can, Pig, gin 1
  2;7,32 8;31,47 21;15,19 2;47,7 9;12,50
  Solar: Water-Sheep. Zhang 8
17: Tue. mchu. Fire-Fire; 11 Feb 2020
  skal bzang, khyim skyes, Mouse, zin 2
  3;1,51 9;36,1 21;19,53 3;55,55 9;13,48
  Solar: Wood-Monkey. Yi 9
18. Omitted: Ox zon 3
19: Wed. gre. Water-Fire; 12 Feb 2020
  shin tu 'grams, gdab pa, Tiger, li 4
  4;50,21 10;44,38 21;29,0 5;13,39 9;15,44
  Solar: Wood-Bird. Zhen 1
20: Thu. dbo. Wind-Wind; 13 Feb 2020
  las bzang, rigs can, Rabbit, khon 5
  5;44,37 11;48,56 21;33,34 6;22,30 9;16,42
  Solar: Fire-Dog. Jiao 2
21: Fri. me bzhi. Earth-Wind; 14 Feb 2020
  'dzin byed, khyim skyes, Dragon, dwa 6
  6;38,52 12;53,15 21;38,7 7;31,22 9;17,41
  Solar: Fire-Pig. Kang 3
22: Sat. nag pa. Earth-Wind; 15 Feb 2020
  zug rngu, vishti, Snake, khen 7
  0;33,7 13;57,33 21;42,41 8;40,14 9;18,39
  Solar: Earth-Mouse. Di 4
23: Sun. sa ga. Fire-Fire; 16 Feb 2020
  'grams, byis pa, Horse, kham 8
  1;28,18 15;0,55 21;47,14 9;48,10 9;19,37
  Solar: Earth-Ox. Fang 5
24: Mon. lha mtshams. Water-Earth; 17 Feb 2020
  'phel, khyim skyes, Sheep, gin 9
  2;24,30 16;3,18 21;51,48 10;55,6 9;20,35
  Solar: Iron-Tiger. Xin 6
25: Tue. snron. Fire-Earth; 18 Feb 2020
  yongs bsnun, vishti, Monkey, zin 1
  3;21,41 17;4,40 21;56,21 12;1,2 9;21,34
  Solar: Iron-Rabbit. Wei 7
26: Wed. snrubs. Water-Water; 19 Feb 2020
  dga' ba, byis pa, Bird, zon 2
  4;19,52 18;5,2 22;0,55 13;5,58 9;22,32
  Solar: Water-Dragon. Ji 8
27: Thu. chu stod. Wind-Water; 20 Feb 2020
  rdo rje, til rdung, Dog, li 3
  5;20,0 19;3,28 22;5,29 14;8,57 9;23,30
  Solar: Water-Snake. Dou 9
28: Fri. chu smad. Earth-Earth; 21 Feb 2020
  dngos grub, tshong ba, Pig, khon 4
  6;21,12 20;0,50 22;10,2 15;10,53 9;24,28
  Solar: Wood-Horse. Niu 1
29: Sat. chu smad. Earth-Earth; 22 Feb 2020
  phan tshun, bkra shis, Mouse, dwa 5
  0;23,23 20;57,12 22;14,36 16;11,48 9;25,26
  Solar: Wood-Sheep. Nu 2
30: Sun. gro zhin. Fire-Earth; 23 Feb 2020
  mchog can, klu, Ox, khen 6
  1;26,35 21;52,34 22;19,9 17;11,44 9;26,25
  Solar: Fire-Monkey. Xu 3
